{
    //----------------------------------------
    // This is the setup description of the 'tiny TCDS' in Dominique's
    // lab in B40.
    //----------------------------------------

    // Various notes to remember:

    // - The top-level element is the name of the location. This
    // should match the 'X' in the file name 'tcds_setup_X.json', and
    // it is assumed to match the XDAQ zone name of that location.

    // - The hardware mapping works as follows:
    //   - The smallest 'functional' piece is a partition, defined by
    //     a partition interface (PI).
    //   - A PI defines optional connections it has to a primary
    //     and/or a secondary ICI.
    //   - An ICI is physically located in an LPM, so an ICI defines
    //     the corresponding LPM.
    //   - An ICI may have an associated APVE, located in the same LPM
    //     as the ICI, of course.
    //   - LPMs are mapped to the corresponding CPMs based on the rack
    //     and crate ids, since all xPMs have to share a crate to be
    //     able to communicate.

    "tcds40": {
        "desc": "Dominique's lab in B40.",

        "hardware": {

            "cpm": {
                "desc": "The CPM.",
                "rack": "LAB40",
                "crate": "TCDS",
                "slot": "13"
            },

            "lpm": {
                "desc": "The LPM.",
                "rack": "LAB40",
                "crate": "TCDS",
                "slot": "1"
            },

            "ici-1": {
                "lpm": "lpm",
                "ici_number": "1"
            },
            "ici-2": {
                "lpm": "lpm",
                "ici_number": "2"
            },

            "apve-1": {
                "lpm": "lpm",
                "ici_number": "1"
            },

            "pi-1": {
                "rack": "LAB40",
                "crate": "TCDS",
                "slot": "6",
                "ici-pri": "ici-1",
                "ici-sec": "none"
            },
            "pi-2": {
                "rack": "LAB40",
                "crate": "TCDS",
                "slot": "7",
                "ici-pri": "ici-2",
                "ici-sec": "none"
            }
        },

        "software": {

            "cpm": {
                "application": "tcds::cpm::CPMController",
                "host": "daqlabamc13.dyndns.cern.ch",
                "port": "2050",
                "lid": "100",
                "hardware": "cpm"
            },

            "lpm": {
                "application": "tcds::lpm::LPMController",
                "host": "daqlabamc13.dyndns.cern.ch",
                "port": "2100",
                "lid": "201",
                "hardware": "lpm"
            },

            "ici-1": {
                "application" : "tcds::ici::ICIController",
                "host": "daqlabamc13.dyndns.cern.ch",
                "port" : "2100",
                "lid" : "301",
                "hardware": "ici-1"
            },
            "ici-2": {
                "application" : "tcds::ici::ICIController",
                "host": "daqlabamc13.dyndns.cern.ch",
                "port" : "2100",
                "lid" : "302",
                "hardware": "ici-2"
            },

            // "apve-1": {
            //     "application" : "tcds::apve::APVEController",
            //     "host": "daqlabamc13.dyndns.cern.ch",
            //     "port" : "2100",
            //     "lid" : "401",
            //     "hardware": "apve-1"
            // },

            "pi-1": {
                "application" : "tcds::pi::PIController",
                "host": "daqlabamc13.dyndns.cern.ch",
                "port" : "2100",
                "lid" : "501",
                "hardware": "pi-1"
            },
            "pi-2": {
                "application" : "tcds::pi::PIController",
                "host": "daqlabamc13.dyndns.cern.ch",
                "port" : "2100",
                "lid" : "502",
                "hardware": "pi-2"
            }
        }
    }
}
